<svg width="100" height="23" viewBox="0 0 100 23" fill="none" xmlns="http://www.w3.org/2000/svg">
<path d="M99.2466 0.835571H0V22.8904H99.2466V0.835571Z" fill="#333333"/>
<path d="M61.5793 12.8154C61.5793 12.0585 61.7494 11.3016 62.1236 10.5791C62.4977 9.85665 63.0419 9.30619 63.7222 8.92775C64.4024 8.54931 65.1847 8.37729 66.001 8.37729C67.2935 8.37729 68.3819 8.79013 69.1982 9.65023C70.0145 10.5103 70.4567 11.5768 70.4567 12.8842C70.4567 14.1915 70.0485 15.2925 69.1982 16.1525C68.3479 17.0126 67.2935 17.4599 66.035 17.4599C65.2527 17.4599 64.5044 17.2879 63.7902 16.9094C63.0759 16.531 62.5317 16.0149 62.1576 15.3269C61.7494 14.6732 61.5793 13.8131 61.5793 12.8154Z" fill="white"/>
<path d="M67.3956 11.4737C67.2935 11.6457 67.2935 11.8521 67.4296 11.9898C67.7017 12.2994 67.8377 12.6778 67.8377 13.0907C67.8377 14.054 67.0214 14.8453 66.0351 14.8453C65.0487 14.8453 64.2324 14.054 64.2324 13.0907C64.2324 12.6778 64.3684 12.3338 64.6065 12.0242C64.7426 11.8521 64.7426 11.6457 64.6065 11.4737C64.4365 11.2673 64.0963 11.2673 63.9263 11.4737C63.5521 11.9209 63.3481 12.4714 63.3481 13.0907C63.3481 14.5356 64.5385 15.7054 66.0351 15.7054C67.4976 15.7054 68.7221 14.5356 68.7221 13.0907C68.7221 12.437 68.484 11.8521 68.1098 11.4049C67.8718 11.1985 67.5656 11.2329 67.3956 11.4737Z" fill="#333333"/>
<path d="M66.3752 13.6068H65.695C65.6269 13.6068 65.5929 13.5379 65.5929 13.5035V10.304C65.5929 10.2352 65.6609 10.2008 65.695 10.2008H66.3752C66.4432 10.2008 66.4773 10.2696 66.4773 10.304V13.5035C66.5113 13.5379 66.4432 13.6068 66.3752 13.6068Z" fill="#333333"/>
<path d="M23.315 17.3911H25.8999L27.5325 8.54929H24.9476L23.315 17.3911Z" fill="#4399D4"/>
<path d="M25.6959 5.34985L25.1857 7.51729H27.7707L28.2809 5.34985H25.6959Z" fill="#4399D4"/>
<path d="M21.2742 8.23977C19.3355 8.27418 18.3491 9.68473 18.3491 9.68473L19.3015 5.34985H16.7165L14.3356 17.3912H16.9206L17.8729 12.6435L18.043 11.7834L18.111 11.4049C18.1791 11.3361 18.2811 11.2673 18.3491 11.2329C18.5872 10.9233 18.9273 10.648 19.4715 10.648C20.4919 10.648 21.1042 10.9577 20.9001 12.1962C20.73 13.2971 20.0498 16.7031 19.9137 17.4256H21.7504H22.4987C22.4987 17.4256 23.213 13.9164 23.5191 11.749C23.8592 9.58152 23.213 8.20537 21.2742 8.23977Z" fill="#4399D4"/>
<path d="M44.0968 17.2879V5.24655H46.2736V12.1273L49.4028 8.54932L52.1918 8.44611L48.7905 12.1273L52.1918 17.2535H49.8449L47.294 13.5035L46.2736 14.6388V17.2535L44.0968 17.2879Z" fill="white"/>
<path d="M33.893 10.407V8.58362H31.6481V6.17535L29.3693 6.20976V8.58362H28.3149V10.407H29.3693V14.1914C29.3693 15.0171 29.4033 15.5332 29.4373 15.8084C29.5053 16.1869 29.6074 16.4965 29.7434 16.7029C29.7774 16.7373 29.8114 16.7717 29.8114 16.8061C29.8114 16.8061 29.8455 16.8405 29.8455 16.8749C30.0155 17.047 30.6277 17.5974 31.6481 17.5974C32.8726 17.5974 33.859 17.1502 33.859 17.1502V15.43C31.9542 16.3589 31.6821 15.3956 31.6481 15.2924C31.6141 15.1891 31.6141 14.6387 31.6141 13.9162V10.407H33.893Z" fill="white"/>
<path d="M41.7159 14.8795C41.2057 15.3612 40.1513 16.1181 38.9949 15.8772C38.5187 15.8428 38.1106 15.6364 37.7704 15.2924C37.0221 14.7075 36.716 13.9162 36.716 13.7098H37.1922H43.3485C43.3825 11.9208 43.0084 10.5791 42.1921 9.71897C41.4098 8.85887 40.2874 8.41162 38.9269 8.41162C37.7024 8.41162 36.682 8.82447 35.8657 9.65016C35.0494 10.4758 34.6753 11.6112 34.6753 13.0905C34.6753 14.3291 34.9814 15.3268 35.5936 16.1525C36.3759 17.1502 37.5663 17.6662 39.165 17.6662C40.1853 17.6662 41.0357 17.4598 41.7159 17.0126C42.1581 16.7373 42.4982 16.3589 42.7703 15.9116L41.7159 14.8795ZM37.4643 10.8199C37.8725 10.3726 38.4167 10.1318 39.0629 10.1318C39.6751 10.1318 40.1853 10.3382 40.5935 10.7855C40.9336 11.1295 41.1717 11.6456 41.2397 12.2648H36.8521C36.9201 11.6456 37.1242 11.1639 37.4643 10.8199Z" fill="white"/>
<path d="M60.695 10.3382C60.627 9.9942 60.4569 9.65016 60.2529 9.37493C60.0488 9.0997 59.7087 8.85887 59.3005 8.68685C58.8924 8.51483 58.4162 8.41162 57.906 8.41162C56.7496 8.41162 55.8312 8.89327 55.0489 9.89098V8.58364H52.9401V17.2878H54.9469V11.9208C54.9469 11.9208 55.185 10.1662 56.8856 10.1662C56.9536 10.1662 57.5999 10.2006 57.804 10.3382C58.6203 10.6823 58.7563 11.4392 58.7563 11.7144C58.7563 11.9896 58.7563 15.5676 58.7563 17.2878H60.7971V11.8864C60.8311 11.1983 60.7631 10.6823 60.695 10.3382Z" fill="white"/>
<path d="M69.9465 17.2879V16.2558H70.9669V17.2879H69.9465Z" fill="white"/>
<path d="M74.8103 14.8452L73.892 15.0172C73.858 14.8452 73.7899 14.7076 73.6879 14.6044C73.5859 14.5011 73.4498 14.4667 73.2457 14.4667C73.0076 14.4667 72.8376 14.5355 72.7015 14.7076C72.5655 14.8452 72.4974 15.1204 72.4974 15.4645C72.4974 15.8773 72.5655 16.1525 72.7015 16.3245C72.8376 16.4966 73.0417 16.5654 73.2797 16.5654C73.4498 16.5654 73.6199 16.531 73.7219 16.4278C73.8239 16.3245 73.926 16.1525 73.96 15.9461L74.8783 16.0837C74.7763 16.4966 74.6062 16.8062 74.3341 17.0126C74.062 17.219 73.6879 17.3223 73.2457 17.3223C72.7355 17.3223 72.3274 17.1502 72.0213 16.8406C71.7152 16.531 71.5451 16.0837 71.5451 15.5333C71.5451 14.9828 71.7152 14.5356 72.0213 14.2259C72.3274 13.9163 72.7355 13.7443 73.2797 13.7443C73.7219 13.7443 74.062 13.8475 74.3001 14.0195C74.5382 14.2259 74.7083 14.4667 74.8103 14.8452Z" fill="white"/>
<path d="M75.0825 15.4301C75.0825 15.1205 75.1505 14.8453 75.3206 14.5356C75.4906 14.2604 75.6947 14.0196 75.9668 13.882C76.2389 13.7444 76.579 13.6411 76.9191 13.6411C77.4634 13.6411 77.9055 13.8132 78.2456 14.1572C78.5858 14.5012 78.7558 14.9141 78.7558 15.4645C78.7558 15.9806 78.5858 16.4279 78.2456 16.7719C77.9055 17.1159 77.4634 17.2879 76.9532 17.2879C76.613 17.2879 76.3069 17.2191 76.0348 17.0815C75.7287 16.9439 75.5246 16.7375 75.3546 16.4623C75.1505 16.187 75.0825 15.843 75.0825 15.4301ZM76.0348 15.4989C76.0348 15.843 76.1028 16.1182 76.2729 16.2902C76.443 16.4623 76.647 16.5655 76.8851 16.5655C77.1232 16.5655 77.3273 16.4623 77.4974 16.2902C77.6674 16.1182 77.7355 15.843 77.7355 15.4989C77.7355 15.1549 77.6674 14.9141 77.4974 14.7077C77.3273 14.5356 77.1232 14.4324 76.8851 14.4324C76.647 14.4324 76.443 14.5356 76.2729 14.7077C76.1028 14.8797 76.0348 15.1205 76.0348 15.4989Z" fill="white"/>
<path d="M78.8919 13.7787H79.7422V14.2604C80.0483 13.8819 80.4225 13.7099 80.8306 13.7099C81.0687 13.7099 81.2388 13.7443 81.4088 13.8475C81.5789 13.9507 81.715 14.0883 81.817 14.2604C81.9871 14.0883 82.1571 13.9507 82.3272 13.8475C82.4972 13.7443 82.7013 13.7099 82.9054 13.7099C83.1775 13.7099 83.3816 13.7443 83.5516 13.8475C83.7217 13.9507 83.8578 14.0883 83.9598 14.2948C84.0278 14.4324 84.0618 14.6732 84.0618 15.0172V17.2191H83.1095V15.2581C83.1095 14.914 83.0755 14.7076 83.0074 14.6044C82.9054 14.4668 82.8034 14.398 82.5993 14.398C82.4632 14.398 82.3612 14.4324 82.2251 14.5012C82.1231 14.57 82.0211 14.7076 81.9871 14.8452C81.919 14.9828 81.919 15.2237 81.919 15.5677V17.2191H80.9667V15.3269C80.9667 14.9828 80.9667 14.7764 80.9327 14.6732C80.8986 14.57 80.8306 14.5012 80.7626 14.4668C80.6946 14.4324 80.5925 14.398 80.4905 14.398C80.3544 14.398 80.2184 14.4324 80.1164 14.5012C80.0143 14.57 79.9123 14.6732 79.8783 14.8452C79.8443 14.9828 79.8102 15.2237 79.8102 15.5677V17.2535H78.8579L78.8919 13.7787Z" fill="white"/>
</svg>
