<svg width="100" height="23" viewBox="0 0 100 23" fill="none" xmlns="http://www.w3.org/2000/svg">
<path d="M99.2466 0.753448H0V22.8082H99.2466V0.753448Z" fill="#F1F2F2"/>
<path d="M15.7544 7.36987C13.5809 7.36987 12.1535 8.40799 12.1535 9.96516C12.1535 11.8792 13.9053 12.236 15.2029 12.4307C16.014 12.5605 16.6628 12.6902 16.6628 13.1444C16.6628 13.5661 16.2735 13.7608 15.8518 13.7608C15.3651 13.7608 14.9758 13.5661 14.8785 13.112H14.8461C13.4187 12.8524 12.5428 12.3982 12.1535 12.1387C11.9588 13.8905 12.9645 15.6424 15.8193 15.7397C18.0577 15.7397 19.55 14.6367 19.55 13.0146C19.55 11.0357 17.7658 10.7762 16.4357 10.5491C15.6247 10.4193 14.9758 10.322 14.9758 9.86784C14.9758 9.51099 15.3003 9.2839 15.7544 9.2839C16.241 9.2839 16.5979 9.47855 16.6303 9.93272C17.0521 9.90028 18.739 10.2247 19.4203 10.8735C19.7122 8.66752 17.8955 7.36987 15.7544 7.36987Z" fill="url(#paint0_linear_1_56)"/>
<path opacity="0.5" d="M16.1113 12.6254C16.4357 12.7227 16.6628 12.8849 16.6628 13.1444C16.6628 13.5662 16.2735 13.7608 15.8518 13.7608C15.3651 13.7608 14.9758 13.5662 14.8785 13.112H14.8461C13.4187 12.8525 12.5428 12.3983 12.1535 12.1388C11.9588 13.8906 12.9645 15.6424 15.8193 15.7397C16.8899 15.7397 17.7982 15.4802 18.447 15.0585C18.447 13.4364 16.9223 12.82 16.1113 12.6254Z" fill="url(#paint1_linear_1_56)"/>
<path d="M20.5557 12.1713L20.5233 7.66196H23.2483V12.0415C23.2483 12.885 23.7025 13.3716 24.4162 13.3716C25.1299 13.3716 25.5841 12.885 25.5841 12.0415V7.66196H28.3092V12.1388C28.3092 14.3448 26.7844 15.7722 24.4487 15.8047C22.1129 15.8371 20.5557 14.3773 20.5557 12.1713Z" fill="url(#paint2_linear_1_56)"/>
<path d="M38.1388 7.59702L38.1712 15.4802H36.0626L35.8355 14.9287C35.1867 15.4478 34.3756 15.7722 33.4673 15.7722C31.0666 15.7722 29.3148 14.0204 29.3148 11.5873C29.3148 9.15419 31.0342 7.40237 33.4348 7.40237C34.3756 7.40237 35.1867 7.69434 35.8355 8.24584L36.1275 7.59702H38.1388ZM35.576 11.5548C35.576 10.5167 34.8298 9.77058 33.7917 9.77058C32.7536 9.77058 32.0399 10.5492 32.0399 11.5548C32.0399 12.593 32.786 13.3391 33.8241 13.3391C34.8298 13.3715 35.576 12.593 35.576 11.5548Z" fill="url(#paint3_linear_1_56)"/>
<path d="M44.8217 7.56458L43.8484 10.0625H43.2969C42.3237 10.0625 41.9344 10.4843 41.9344 11.49V15.4802H39.2094V7.59702H41.0261L41.4478 8.47293C41.9993 7.8241 42.6805 7.56458 43.6213 7.56458H44.8217Z" fill="url(#paint4_linear_1_56)"/>
<path d="M53.5483 7.59702L53.5808 15.4802H51.4721L51.245 14.9287C50.5962 15.4478 49.7852 15.7722 48.8768 15.7722C46.4762 15.7722 44.7244 14.0204 44.7244 11.5873C44.7244 9.15419 46.4437 7.40237 48.8444 7.40237C49.7852 7.40237 50.5962 7.69434 51.245 8.24584L51.5045 7.62946L53.5483 7.59702ZM50.9855 11.5548C50.9855 10.5167 50.2393 9.77058 49.2012 9.77058C48.1631 9.77058 47.4494 10.5492 47.4494 11.5548C47.4494 12.593 48.1956 13.3391 49.2337 13.3391C50.2393 13.3715 50.9855 12.593 50.9855 11.5548Z" fill="url(#paint5_linear_1_56)"/>
<path d="M54.9758 13.5338C55.2353 13.3067 55.5273 13.1769 55.8517 13.1769C56.1761 13.1769 56.468 13.3067 56.7276 13.5338C56.9871 13.7609 57.1169 14.0853 57.1169 14.4746C57.1169 14.8638 56.9871 15.1883 56.7276 15.4153C56.468 15.6424 56.1761 15.7722 55.8517 15.7722C55.5273 15.7722 55.2353 15.6424 54.9758 15.4153C54.7162 15.1883 54.5865 14.8638 54.5865 14.4746C54.5865 14.0853 54.7162 13.7609 54.9758 13.5338Z" fill="#41227A"/>
<path d="M66.0706 14.6367C65.292 13.8906 64.9027 12.8849 64.9027 11.6846C64.9027 10.4843 65.292 9.51104 66.103 8.73246C66.9141 7.95387 67.9198 7.56458 69.2174 7.56458C70.515 7.56458 71.5532 7.95387 72.3317 8.73246C73.1103 9.51104 73.5321 10.4843 73.5321 11.6846C73.5321 12.8849 73.1428 13.8906 72.3642 14.6367C71.5856 15.3829 70.5475 15.7722 69.2174 15.7722C67.8873 15.7722 66.8492 15.3829 66.0706 14.6367ZM70.6772 13.1444C71.0017 12.7552 71.1639 12.2685 71.1639 11.6846C71.1639 11.1331 71.0017 10.6465 70.6448 10.2247C70.3204 9.80301 69.8013 9.60837 69.1525 9.60837C68.5037 9.60837 68.0171 9.80301 67.6927 10.2247C67.3683 10.6465 67.1736 11.1331 67.1736 11.6846C67.1736 12.2361 67.3358 12.7227 67.6602 13.112C67.9846 13.5337 68.4712 13.7284 69.1201 13.7284C69.8662 13.7284 70.3528 13.5337 70.6772 13.1444Z" fill="#41227A"/>
<path d="M79.6634 15.7722V11.4899C79.6634 10.3221 79.2093 9.73813 78.3009 9.73813C77.8467 9.73813 77.5223 9.90033 77.2628 10.2572C77.0033 10.614 76.8735 11.0033 76.8735 11.4899V15.7397H74.5377V7.79166H76.5815L76.7437 8.70001C77.1655 7.98631 77.8467 7.62946 78.8524 7.62946C79.9554 7.62946 80.734 8.11607 81.1882 9.12175C81.545 8.57025 81.9343 8.2134 82.3236 7.95387C82.7453 7.72678 83.232 7.59702 83.8159 7.59702C84.7567 7.59702 85.5353 7.88899 86.1192 8.47293C86.7032 9.05687 86.9951 10.0301 86.9951 11.4251V15.7722H84.6594V11.4575C84.6594 10.3545 84.2701 9.80301 83.459 9.80301C83.0049 9.80301 82.648 9.96522 82.3885 10.2896C82.129 10.614 81.9992 11.0033 81.9992 11.4899V15.7722H79.6634Z" fill="#41227A"/>
<path d="M62.0803 13.6959C61.4964 13.6959 60.9773 13.5012 60.588 13.1444C60.1988 12.7875 60.0041 12.3009 60.0041 11.6521C60.0041 11.0357 60.1988 10.5167 60.588 10.1598C60.9773 9.80295 61.464 9.60831 62.0803 9.60831C62.6643 9.60831 63.1509 9.77051 63.5726 10.0625L64.8378 8.60263C64.1566 7.88893 63.1833 7.53207 61.983 7.53207C60.7827 7.53207 59.777 7.88893 58.9336 8.63507C58.1225 9.38122 57.7008 10.3545 57.7008 11.6197C57.7008 11.6197 57.7008 11.6197 57.7008 11.6521C57.7008 12.8849 58.1225 13.8905 58.9336 14.6042C59.7446 15.3504 60.7827 15.7072 61.983 15.7072C63.1833 15.7072 64.1566 15.3504 64.8378 14.6367L63.5726 13.1768C63.1509 13.5661 62.6643 13.6959 62.0803 13.6959Z" fill="#41227A"/>
<defs>
<linearGradient id="paint0_linear_1_56" x1="21.2045" y1="13.0382" x2="38.8539" y2="17.8708" gradientUnits="userSpaceOnUse">
<stop stop-color="#ED1C24"/>
<stop offset="1" stop-color="#41227A"/>
</linearGradient>
<linearGradient id="paint1_linear_1_56" x1="12.1167" y1="13.9473" x2="18.404" y2="13.9243" gradientUnits="userSpaceOnUse">
<stop stop-color="white" stop-opacity="0"/>
<stop offset="1"/>
</linearGradient>
<linearGradient id="paint2_linear_1_56" x1="21.908" y1="10.5991" x2="39.7025" y2="15.4714" gradientUnits="userSpaceOnUse">
<stop stop-color="#ED1C24"/>
<stop offset="1" stop-color="#41227A"/>
</linearGradient>
<linearGradient id="paint3_linear_1_56" x1="22.7966" y1="8.21029" x2="40.5911" y2="13.0826" gradientUnits="userSpaceOnUse">
<stop stop-color="#ED1C24"/>
<stop offset="1" stop-color="#41227A"/>
</linearGradient>
<linearGradient id="paint4_linear_1_56" x1="23.466" y1="6.43987" x2="41.2605" y2="11.3122" gradientUnits="userSpaceOnUse">
<stop stop-color="#ED1C24"/>
<stop offset="1" stop-color="#41227A"/>
</linearGradient>
<linearGradient id="paint5_linear_1_56" x1="24.2179" y1="4.38525" x2="42.0124" y2="9.25755" gradientUnits="userSpaceOnUse">
<stop stop-color="#ED1C24"/>
<stop offset="1" stop-color="#41227A"/>
</linearGradient>
</defs>
</svg>
