<?xml version="1.0" encoding="utf-8"?>
<!-- Generator: Adobe Illustrator 23.0.3, SVG Export Plug-In . SVG Version: 6.00 Build 0)  -->
<svg version="1.1" id="Layer_1" xmlns="http://www.w3.org/2000/svg" xmlns:xlink="http://www.w3.org/1999/xlink" x="0px" y="0px"
	 viewBox="0 0 128 128" style="enable-background:new 0 0 128 128;" xml:space="preserve">
<path d="M89.5,68c-8.2,8-17.7,7.8-27.6,5c4.6-0.8,8.6-2.6,12.1-5.7C81,61,83,50.8,78.9,42.1C75,33.8,65.6,28.8,56.4,30.1
	c-9.3,1.4-16.9,8.8-18,18.1c-0.5,4.1-0.4,8.2-0.4,12.3c-0.1,17.5-0.1,35-0.1,52.5c0,7-3,11.2-9.7,13.4c-5.6,1.8-11.2,1.6-16.5-1.1
	c-4.6-2.4-7.1-6.1-7.1-11.5c0.1-19.3,0-38.6,0-57.9c0-7.4,0.1-14.7,1.5-22c2-10.3,8.2-17.5,16.8-23c8.8-5.6,18.5-8.4,28.7-9.8
	C65-0.5,78.2,0.4,91,4.7c9,3.1,17,7.7,23,15.3c4.2,5.3,6.2,11.6,7.3,18.1c1.3,7.9,1.7,15.9,1.9,23.9c0.3,16.7,0.1,33.3,0.1,50
	c0,8.5-3.7,13.2-12.1,15c-6.1,1.3-11.9,0.5-17-3.3c-3.1-2.3-4.7-5.5-4.7-9.4C89.6,99,89.5,83.6,89.5,68z"/>
</svg>
