<svg width="50" height="50" viewBox="0 0 50 50" fill="none" xmlns="http://www.w3.org/2000/svg">
<path d="M8.29808e-05 25.0293C-0.0350869 11.2193 11.1138 0.0470403 24.9707 0.000147232C38.769 -0.0467459 49.953 11.1138 49.9999 24.9707C50.0351 38.769 38.8745 49.9647 25.0293 49.9999C11.2193 50.0351 0.0352529 38.8745 8.29808e-05 25.0293ZM4.98248 24.959C4.92387 35.9437 13.9274 44.9706 24.9707 45.0175C35.932 45.0644 44.9003 36.1313 45.0175 25.0762C45.123 14.1267 36.1195 5.0646 25.0528 4.99426C14.0798 4.9122 5.0411 13.904 4.98248 24.959Z" fill="white"/>
<path d="M20.0001 36.2483C20.0001 28.6986 20.0001 21.3012 20.0001 13.7515C25.0294 17.5146 29.9766 21.2309 34.9942 24.994C30.0118 28.7455 25.0529 32.4617 20.0001 36.2483Z" fill="white"/>
</svg>
