<svg width="17" height="17" viewBox="0 0 17 17" fill="none" xmlns="http://www.w3.org/2000/svg">
<path d="M0 7.52522C0 7.29997 0 7.07114 0 6.84589C0.0392857 6.54556 0.0642857 6.24165 0.117857 5.9449C0.817857 2.01197 4.56071 -0.59449 8.475 0.117012C12.5821 0.864268 15.1964 4.95451 14.1536 8.99828C13.9429 9.81347 13.5929 10.5643 13.0893 11.3008C13.1464 11.3402 13.2107 11.3723 13.2643 11.4224C14.2929 12.4485 15.3143 13.4818 16.3464 14.5008C16.6464 14.7976 16.9214 15.0979 17 15.5341C17 15.6306 17 15.7236 17 15.8201C17 16.0954 16.8464 16.267 16.7214 16.4637C16.5321 16.7604 16.225 16.9106 15.8929 17C15.75 17 15.6071 17 15.4643 17C15.1 16.9178 14.8357 16.6889 14.5821 16.4315C13.5286 15.3696 12.4679 14.3185 11.4107 13.2601C11.3643 13.2137 11.3393 13.1493 11.3 13.0957C11.2214 13.1493 11.1857 13.1708 11.15 13.1922C9.50357 14.2756 7.70714 14.6045 5.77857 14.2434C2.96786 13.7214 0.65 11.3866 0.142857 8.56208C0.0821429 8.21884 0.0464286 7.87203 0 7.52522ZM7.19286 11.7692C9.72857 11.7692 11.7643 9.73123 11.7607 7.19271C11.7607 4.65776 9.74286 2.65196 7.22857 2.61263C4.78571 2.56973 2.59286 4.64703 2.61429 7.21058C2.63571 9.72408 4.66786 11.7692 7.19286 11.7692Z" fill="black"/>
</svg>
