<svg width="20" height="20" viewBox="0 0 20 20" fill="none" xmlns="http://www.w3.org/2000/svg">
<rect width="23.4719" height="4.26761" rx="2" transform="matrix(-0.699816 0.714323 -0.699816 -0.714324 19.4126 3.23364)" fill="black"/>
<rect width="23.4719" height="4.26761" rx="2" transform="matrix(0.699816 0.714323 -0.699816 0.714323 3.5741 0)" fill="black"/>
</svg>
