<svg width="320" height="100" viewBox="0 0 320 100" fill="none" xmlns="http://www.w3.org/2000/svg">
<rect width="320" height="100" fill="black"/>
<path d="M139.987 37.8311H144.851C145.814 37.8311 146.531 37.8726 147.001 37.9556C147.477 38.033 147.9 38.1991 148.271 38.4536C148.647 38.7082 148.96 39.0485 149.209 39.4746C149.458 39.8952 149.583 40.3683 149.583 40.894C149.583 41.464 149.428 41.987 149.118 42.4629C148.813 42.9388 148.398 43.2957 147.873 43.5337C148.614 43.7495 149.184 44.1175 149.583 44.6377C149.981 45.1579 150.18 45.7694 150.18 46.4722C150.18 47.0256 150.05 47.5651 149.79 48.0908C149.535 48.611 149.184 49.0288 148.736 49.3442C148.293 49.6541 147.745 49.8451 147.092 49.917C146.683 49.9613 145.695 49.9889 144.129 50H139.987V37.8311ZM142.444 39.8564V42.6704H144.054C145.012 42.6704 145.606 42.6566 145.839 42.6289C146.259 42.5791 146.589 42.4352 146.827 42.1973C147.07 41.9538 147.192 41.6356 147.192 41.2427C147.192 40.8664 147.087 40.562 146.876 40.3296C146.672 40.0916 146.365 39.9478 145.955 39.8979C145.712 39.8703 145.012 39.8564 143.855 39.8564H142.444ZM142.444 44.6958V47.9497H144.718C145.604 47.9497 146.165 47.9248 146.403 47.875C146.769 47.8086 147.065 47.6481 147.292 47.3936C147.524 47.1335 147.64 46.7876 147.64 46.356C147.64 45.9907 147.552 45.6808 147.375 45.4263C147.197 45.1717 146.94 44.9863 146.603 44.8701C146.271 44.7539 145.546 44.6958 144.428 44.6958H142.444ZM151.708 45.4678C151.708 44.693 151.898 43.9432 152.28 43.2183C152.662 42.4933 153.202 41.9399 153.899 41.5581C154.602 41.1763 155.385 40.9854 156.248 40.9854C157.582 40.9854 158.675 41.4198 159.527 42.2886C160.379 43.1519 160.805 44.2448 160.805 45.5674C160.805 46.901 160.374 48.0078 159.51 48.8877C158.653 49.762 157.571 50.1992 156.265 50.1992C155.457 50.1992 154.685 50.0166 153.949 49.6514C153.218 49.2861 152.662 48.7521 152.28 48.0493C151.898 47.341 151.708 46.4805 151.708 45.4678ZM154.098 45.5923C154.098 46.4666 154.306 47.1362 154.721 47.6011C155.136 48.0659 155.648 48.2983 156.256 48.2983C156.865 48.2983 157.374 48.0659 157.784 47.6011C158.199 47.1362 158.406 46.4611 158.406 45.5757C158.406 44.7124 158.199 44.0483 157.784 43.5835C157.374 43.1187 156.865 42.8862 156.256 42.8862C155.648 42.8862 155.136 43.1187 154.721 43.5835C154.306 44.0483 154.098 44.7179 154.098 45.5923ZM166.682 41.1846V43.0439H165.088V46.5967C165.088 47.3161 165.102 47.7367 165.13 47.8584C165.163 47.9746 165.232 48.0715 165.337 48.1489C165.448 48.2264 165.581 48.2651 165.736 48.2651C165.952 48.2651 166.264 48.1904 166.674 48.041L166.873 49.8506C166.331 50.083 165.716 50.1992 165.03 50.1992C164.61 50.1992 164.231 50.13 163.893 49.9917C163.556 49.8478 163.306 49.6652 163.146 49.4438C162.991 49.217 162.883 48.9126 162.822 48.5308C162.772 48.2596 162.748 47.7118 162.748 46.8872V43.0439H161.677V41.1846H162.748V39.4331L165.088 38.0718V41.1846H166.682ZM172.343 41.1846V43.0439H170.75V46.5967C170.75 47.3161 170.763 47.7367 170.791 47.8584C170.824 47.9746 170.893 48.0715 170.999 48.1489C171.109 48.2264 171.242 48.2651 171.397 48.2651C171.613 48.2651 171.925 48.1904 172.335 48.041L172.534 49.8506C171.992 50.083 171.378 50.1992 170.691 50.1992C170.271 50.1992 169.892 50.13 169.554 49.9917C169.217 49.8478 168.968 49.6652 168.807 49.4438C168.652 49.217 168.544 48.9126 168.483 48.5308C168.434 48.2596 168.409 47.7118 168.409 46.8872V43.0439H167.338V41.1846H168.409V39.4331L170.75 38.0718V41.1846H172.343ZM173.422 45.4678C173.422 44.693 173.613 43.9432 173.995 43.2183C174.377 42.4933 174.917 41.9399 175.614 41.5581C176.317 41.1763 177.1 40.9854 177.963 40.9854C179.297 40.9854 180.389 41.4198 181.242 42.2886C182.094 43.1519 182.52 44.2448 182.52 45.5674C182.52 46.901 182.088 48.0078 181.225 48.8877C180.367 49.762 179.285 50.1992 177.979 50.1992C177.172 50.1992 176.4 50.0166 175.664 49.6514C174.933 49.2861 174.377 48.7521 173.995 48.0493C173.613 47.341 173.422 46.4805 173.422 45.4678ZM175.813 45.5923C175.813 46.4666 176.021 47.1362 176.436 47.6011C176.851 48.0659 177.362 48.2983 177.971 48.2983C178.58 48.2983 179.089 48.0659 179.499 47.6011C179.914 47.1362 180.121 46.4611 180.121 45.5757C180.121 44.7124 179.914 44.0483 179.499 43.5835C179.089 43.1187 178.58 42.8862 177.971 42.8862C177.362 42.8862 176.851 43.1187 176.436 43.5835C176.021 44.0483 175.813 44.7179 175.813 45.5923ZM184.18 41.1846H186.33V42.3882C187.099 41.453 188.015 40.9854 189.078 40.9854C189.642 40.9854 190.132 41.1016 190.547 41.334C190.962 41.5664 191.302 41.9178 191.568 42.3882C191.955 41.9178 192.373 41.5664 192.821 41.334C193.27 41.1016 193.748 40.9854 194.257 40.9854C194.905 40.9854 195.453 41.1182 195.901 41.3838C196.349 41.6439 196.684 42.0285 196.905 42.5376C197.066 42.9139 197.146 43.5226 197.146 44.3638V50H194.813V44.9614C194.813 44.0871 194.733 43.5226 194.573 43.2681C194.357 42.936 194.025 42.77 193.577 42.77C193.25 42.77 192.943 42.8696 192.655 43.0688C192.368 43.2681 192.16 43.5614 192.033 43.9487C191.905 44.3306 191.842 44.9365 191.842 45.7666V50H189.509V45.1689C189.509 44.3112 189.468 43.7578 189.385 43.5088C189.302 43.2598 189.172 43.0744 188.995 42.9526C188.823 42.8309 188.588 42.77 188.289 42.77C187.929 42.77 187.606 42.8669 187.318 43.0605C187.03 43.2542 186.823 43.5337 186.695 43.8989C186.574 44.2642 186.513 44.8701 186.513 45.7168V50H184.18V41.1846ZM136.019 66.771L138.277 66.4971C138.349 67.0726 138.542 67.5125 138.858 67.8169C139.173 68.1213 139.555 68.2734 140.003 68.2734C140.485 68.2734 140.889 68.0908 141.215 67.7256C141.547 67.3604 141.713 66.8678 141.713 66.248C141.713 65.6615 141.556 65.1966 141.24 64.8535C140.925 64.5104 140.54 64.3389 140.086 64.3389C139.788 64.3389 139.431 64.397 139.016 64.5132L139.273 62.6123C139.904 62.6289 140.385 62.4933 140.717 62.2056C141.049 61.9123 141.215 61.5249 141.215 61.0435C141.215 60.634 141.094 60.3075 140.85 60.064C140.607 59.8205 140.283 59.6987 139.879 59.6987C139.48 59.6987 139.14 59.8371 138.858 60.1138C138.576 60.3905 138.404 60.7944 138.343 61.3257L136.193 60.9604C136.343 60.2244 136.567 59.6379 136.866 59.2007C137.17 58.758 137.591 58.4121 138.127 58.1631C138.67 57.9085 139.276 57.7812 139.945 57.7812C141.091 57.7812 142.009 58.1465 142.701 58.877C143.271 59.4746 143.556 60.1497 143.556 60.9023C143.556 61.9704 142.972 62.8226 141.805 63.459C142.502 63.6084 143.058 63.9432 143.473 64.4634C143.894 64.9836 144.104 65.6117 144.104 66.3477C144.104 67.4157 143.714 68.326 142.934 69.0786C142.153 69.8312 141.182 70.2075 140.02 70.2075C138.919 70.2075 138.006 69.8921 137.281 69.2612C136.556 68.6248 136.135 67.7948 136.019 66.771ZM153.442 67.8335V70H145.266C145.355 69.181 145.62 68.4062 146.063 67.6758C146.506 66.9398 147.38 65.9658 148.686 64.7539C149.737 63.7744 150.382 63.1104 150.62 62.7617C150.941 62.2803 151.102 61.8044 151.102 61.334C151.102 60.8138 150.96 60.4154 150.678 60.1387C150.402 59.8564 150.017 59.7153 149.524 59.7153C149.037 59.7153 148.65 59.862 148.362 60.1553C148.075 60.4486 147.909 60.9355 147.864 61.6162L145.54 61.3838C145.678 60.0999 146.113 59.1785 146.843 58.6196C147.574 58.0607 148.487 57.7812 149.583 57.7812C150.783 57.7812 151.727 58.105 152.413 58.7524C153.099 59.3999 153.442 60.2051 153.442 61.168C153.442 61.7158 153.343 62.2388 153.144 62.7368C152.95 63.2293 152.64 63.7467 152.214 64.2891C151.932 64.6488 151.423 65.1662 150.687 65.8413C149.951 66.5164 149.483 66.9647 149.284 67.186C149.09 67.4074 148.932 67.6232 148.811 67.8335H153.442ZM158.971 57.7812C160.149 57.7812 161.071 58.2018 161.735 59.043C162.526 60.0391 162.922 61.6909 162.922 63.9985C162.922 66.3006 162.523 67.9552 161.727 68.9624C161.068 69.7925 160.149 70.2075 158.971 70.2075C157.786 70.2075 156.832 69.7537 156.107 68.8462C155.382 67.9331 155.02 66.3089 155.02 63.9736C155.02 61.6826 155.418 60.0335 156.215 59.0264C156.873 58.1963 157.792 57.7812 158.971 57.7812ZM158.971 59.7153C158.688 59.7153 158.437 59.8066 158.215 59.9893C157.994 60.1663 157.822 60.4873 157.701 60.9521C157.54 61.5553 157.46 62.5708 157.46 63.9985C157.46 65.4263 157.532 66.4085 157.676 66.9453C157.82 67.4766 158 67.8307 158.215 68.0078C158.437 68.1849 158.688 68.2734 158.971 68.2734C159.253 68.2734 159.505 68.1849 159.726 68.0078C159.947 67.8252 160.119 67.5015 160.241 67.0366C160.401 66.439 160.481 65.4263 160.481 63.9985C160.481 62.5708 160.41 61.5913 160.266 61.0601C160.122 60.5233 159.939 60.1663 159.718 59.9893C159.502 59.8066 159.253 59.7153 158.971 59.7153ZM163.868 70L167.047 65.4595L164.001 61.1846H166.848L168.409 63.6084L170.052 61.1846H172.792L169.803 65.3599L173.065 70H170.202L168.409 67.269L166.599 70H163.868ZM179.922 70H177.589V61.2095C176.737 62.0063 175.733 62.5957 174.576 62.9775V60.8608C175.185 60.6616 175.846 60.2853 176.56 59.7319C177.274 59.173 177.764 58.5228 178.029 57.7812H179.922V70ZM187.359 57.7812C188.538 57.7812 189.459 58.2018 190.124 59.043C190.915 60.0391 191.311 61.6909 191.311 63.9985C191.311 66.3006 190.912 67.9552 190.115 68.9624C189.457 69.7925 188.538 70.2075 187.359 70.2075C186.175 70.2075 185.221 69.7537 184.496 68.8462C183.771 67.9331 183.408 66.3089 183.408 63.9736C183.408 61.6826 183.807 60.0335 184.604 59.0264C185.262 58.1963 186.181 57.7812 187.359 57.7812ZM187.359 59.7153C187.077 59.7153 186.825 59.8066 186.604 59.9893C186.383 60.1663 186.211 60.4873 186.089 60.9521C185.929 61.5553 185.849 62.5708 185.849 63.9985C185.849 65.4263 185.921 66.4085 186.064 66.9453C186.208 67.4766 186.388 67.8307 186.604 68.0078C186.825 68.1849 187.077 68.2734 187.359 68.2734C187.642 68.2734 187.893 68.1849 188.115 68.0078C188.336 67.8252 188.508 67.5015 188.629 67.0366C188.79 66.439 188.87 65.4263 188.87 63.9985C188.87 62.5708 188.798 61.5913 188.654 61.0601C188.51 60.5233 188.328 60.1663 188.106 59.9893C187.891 59.8066 187.642 59.7153 187.359 59.7153ZM196.822 57.7812C198.001 57.7812 198.922 58.2018 199.586 59.043C200.378 60.0391 200.773 61.6909 200.773 63.9985C200.773 66.3006 200.375 67.9552 199.578 68.9624C198.92 69.7925 198.001 70.2075 196.822 70.2075C195.638 70.2075 194.683 69.7537 193.958 68.8462C193.234 67.9331 192.871 66.3089 192.871 63.9736C192.871 61.6826 193.27 60.0335 194.066 59.0264C194.725 58.1963 195.644 57.7812 196.822 57.7812ZM196.822 59.7153C196.54 59.7153 196.288 59.8066 196.067 59.9893C195.846 60.1663 195.674 60.4873 195.552 60.9521C195.392 61.5553 195.312 62.5708 195.312 63.9985C195.312 65.4263 195.383 66.4085 195.527 66.9453C195.671 67.4766 195.851 67.8307 196.067 68.0078C196.288 68.1849 196.54 68.2734 196.822 68.2734C197.104 68.2734 197.356 68.1849 197.578 68.0078C197.799 67.8252 197.971 67.5015 198.092 67.0366C198.253 66.439 198.333 65.4263 198.333 63.9985C198.333 62.5708 198.261 61.5913 198.117 61.0601C197.973 60.5233 197.791 60.1663 197.569 59.9893C197.354 59.8066 197.104 59.7153 196.822 59.7153Z" fill="white"/>
</svg>
