<svg width="320" height="100" viewBox="0 0 320 100" fill="none" xmlns="http://www.w3.org/2000/svg">
<rect width="320" height="100" fill="black"/>
<path d="M118.272 50V37.9307H120.729V47.9497H126.838V50H118.272ZM133.687 47.1943L136.011 47.5845C135.712 48.4367 135.239 49.0869 134.591 49.5352C133.949 49.9779 133.144 50.1992 132.176 50.1992C130.643 50.1992 129.508 49.6984 128.772 48.6968C128.191 47.8944 127.901 46.8817 127.901 45.6587C127.901 44.1978 128.283 43.055 129.046 42.2305C129.81 41.4004 130.776 40.9854 131.943 40.9854C133.255 40.9854 134.29 41.4198 135.048 42.2886C135.806 43.1519 136.168 44.4772 136.135 46.2646H130.292C130.308 46.9564 130.496 47.4959 130.856 47.8833C131.216 48.2651 131.664 48.4561 132.201 48.4561C132.566 48.4561 132.873 48.3564 133.122 48.1572C133.371 47.958 133.559 47.637 133.687 47.1943ZM133.819 44.8369C133.803 44.1618 133.628 43.6499 133.296 43.3013C132.964 42.9471 132.56 42.77 132.084 42.77C131.575 42.77 131.155 42.9554 130.823 43.3262C130.491 43.6969 130.327 44.2005 130.333 44.8369H133.819ZM139.788 43.874L137.671 43.4922C137.909 42.64 138.318 42.0091 138.899 41.5996C139.48 41.1901 140.344 40.9854 141.489 40.9854C142.53 40.9854 143.304 41.1099 143.813 41.3589C144.323 41.6024 144.68 41.915 144.884 42.2969C145.095 42.6732 145.2 43.3677 145.2 44.3804L145.175 47.103C145.175 47.8778 145.211 48.4505 145.283 48.8213C145.36 49.1865 145.501 49.5794 145.706 50H143.398C143.338 49.8451 143.263 49.6154 143.174 49.311C143.136 49.1727 143.108 49.0814 143.091 49.0371C142.693 49.4245 142.267 49.715 141.813 49.9087C141.359 50.1024 140.875 50.1992 140.36 50.1992C139.453 50.1992 138.736 49.953 138.21 49.4604C137.69 48.9679 137.43 48.3454 137.43 47.5928C137.43 47.0947 137.549 46.652 137.787 46.2646C138.025 45.8717 138.357 45.5729 138.783 45.3682C139.215 45.1579 139.835 44.9753 140.643 44.8203C141.733 44.6156 142.488 44.4246 142.909 44.2476V44.0151C142.909 43.5669 142.798 43.2487 142.577 43.0605C142.355 42.8669 141.938 42.77 141.323 42.77C140.908 42.77 140.584 42.853 140.352 43.019C140.12 43.1795 139.931 43.4645 139.788 43.874ZM142.909 45.7666C142.61 45.8662 142.137 45.9852 141.489 46.1235C140.842 46.2619 140.418 46.3975 140.219 46.5303C139.915 46.7461 139.763 47.02 139.763 47.3521C139.763 47.6785 139.884 47.9608 140.128 48.1987C140.371 48.4367 140.681 48.5557 141.058 48.5557C141.478 48.5557 141.879 48.4173 142.261 48.1406C142.543 47.9303 142.729 47.673 142.817 47.3687C142.878 47.1694 142.909 46.7904 142.909 46.2314V45.7666ZM155.592 50H153.426V48.7051C153.066 49.2087 152.64 49.585 152.147 49.834C151.66 50.0775 151.168 50.1992 150.67 50.1992C149.657 50.1992 148.788 49.7925 148.063 48.979C147.344 48.16 146.984 47.02 146.984 45.5591C146.984 44.0649 147.336 42.9305 148.039 42.1558C148.741 41.3755 149.63 40.9854 150.703 40.9854C151.688 40.9854 152.54 41.3949 153.26 42.2139V37.8311H155.592V50ZM149.367 45.4014C149.367 46.3421 149.497 47.0228 149.757 47.4434C150.133 48.0521 150.659 48.3564 151.334 48.3564C151.871 48.3564 152.327 48.1296 152.704 47.6758C153.08 47.2165 153.268 46.533 153.268 45.6255C153.268 44.6128 153.085 43.8851 152.72 43.4424C152.355 42.9941 151.887 42.77 151.317 42.77C150.764 42.77 150.299 42.9914 149.923 43.4341C149.552 43.8713 149.367 44.527 149.367 45.4014ZM163.005 47.1943L165.329 47.5845C165.03 48.4367 164.557 49.0869 163.91 49.5352C163.268 49.9779 162.463 50.1992 161.494 50.1992C159.961 50.1992 158.827 49.6984 158.091 48.6968C157.51 47.8944 157.219 46.8817 157.219 45.6587C157.219 44.1978 157.601 43.055 158.365 42.2305C159.128 41.4004 160.094 40.9854 161.262 40.9854C162.573 40.9854 163.608 41.4198 164.366 42.2886C165.124 43.1519 165.487 44.4772 165.454 46.2646H159.61C159.626 46.9564 159.815 47.4959 160.174 47.8833C160.534 48.2651 160.982 48.4561 161.519 48.4561C161.884 48.4561 162.191 48.3564 162.44 48.1572C162.689 47.958 162.878 47.637 163.005 47.1943ZM163.138 44.8369C163.121 44.1618 162.947 43.6499 162.615 43.3013C162.283 42.9471 161.879 42.77 161.403 42.77C160.894 42.77 160.473 42.9554 160.141 43.3262C159.809 43.6969 159.646 44.2005 159.651 44.8369H163.138ZM169.596 50H167.263V41.1846H169.43V42.438C169.8 41.8459 170.132 41.4557 170.426 41.2676C170.725 41.0794 171.062 40.9854 171.438 40.9854C171.97 40.9854 172.482 41.132 172.974 41.4253L172.252 43.459C171.859 43.2044 171.494 43.0771 171.156 43.0771C170.83 43.0771 170.553 43.1685 170.326 43.3511C170.099 43.5282 169.919 43.8519 169.787 44.3223C169.659 44.7926 169.596 45.7777 169.596 47.2773V50ZM173.887 50V37.8311H176.22V42.2139C176.939 41.3949 177.791 40.9854 178.776 40.9854C179.85 40.9854 180.738 41.3755 181.441 42.1558C182.144 42.9305 182.495 44.0456 182.495 45.501C182.495 47.0062 182.135 48.1655 181.416 48.979C180.702 49.7925 179.833 50.1992 178.81 50.1992C178.306 50.1992 177.808 50.0747 177.315 49.8257C176.828 49.5711 176.408 49.1976 176.054 48.7051V50H173.887ZM176.203 45.4014C176.203 46.3145 176.347 46.9896 176.635 47.4268C177.039 48.0465 177.576 48.3564 178.245 48.3564C178.76 48.3564 179.197 48.1379 179.557 47.7007C179.922 47.258 180.104 46.5635 180.104 45.6172C180.104 44.61 179.922 43.8851 179.557 43.4424C179.191 42.9941 178.724 42.77 178.154 42.77C177.595 42.77 177.13 42.9886 176.759 43.4258C176.389 43.8574 176.203 44.516 176.203 45.4014ZM183.84 45.4678C183.84 44.693 184.031 43.9432 184.413 43.2183C184.794 42.4933 185.334 41.9399 186.031 41.5581C186.734 41.1763 187.517 40.9854 188.38 40.9854C189.714 40.9854 190.807 41.4198 191.659 42.2886C192.511 43.1519 192.938 44.2448 192.938 45.5674C192.938 46.901 192.506 48.0078 191.643 48.8877C190.785 49.762 189.703 50.1992 188.397 50.1992C187.589 50.1992 186.817 50.0166 186.081 49.6514C185.351 49.2861 184.794 48.7521 184.413 48.0493C184.031 47.341 183.84 46.4805 183.84 45.4678ZM186.23 45.5923C186.23 46.4666 186.438 47.1362 186.853 47.6011C187.268 48.0659 187.78 48.2983 188.389 48.2983C188.997 48.2983 189.507 48.0659 189.916 47.6011C190.331 47.1362 190.539 46.4611 190.539 45.5757C190.539 44.7124 190.331 44.0483 189.916 43.5835C189.507 43.1187 188.997 42.8862 188.389 42.8862C187.78 42.8862 187.268 43.1187 186.853 43.5835C186.438 44.0483 186.23 44.7179 186.23 45.5923ZM196.515 43.874L194.398 43.4922C194.636 42.64 195.046 42.0091 195.627 41.5996C196.208 41.1901 197.071 40.9854 198.217 40.9854C199.257 40.9854 200.032 41.1099 200.541 41.3589C201.05 41.6024 201.407 41.915 201.612 42.2969C201.822 42.6732 201.927 43.3677 201.927 44.3804L201.902 47.103C201.902 47.8778 201.938 48.4505 202.01 48.8213C202.088 49.1865 202.229 49.5794 202.434 50H200.126C200.065 49.8451 199.99 49.6154 199.902 49.311C199.863 49.1727 199.835 49.0814 199.819 49.0371C199.42 49.4245 198.994 49.715 198.541 49.9087C198.087 50.1024 197.603 50.1992 197.088 50.1992C196.18 50.1992 195.464 49.953 194.938 49.4604C194.418 48.9679 194.158 48.3454 194.158 47.5928C194.158 47.0947 194.277 46.652 194.515 46.2646C194.753 45.8717 195.085 45.5729 195.511 45.3682C195.942 45.1579 196.562 44.9753 197.37 44.8203C198.46 44.6156 199.216 44.4246 199.636 44.2476V44.0151C199.636 43.5669 199.526 43.2487 199.304 43.0605C199.083 42.8669 198.665 42.77 198.051 42.77C197.636 42.77 197.312 42.853 197.08 43.019C196.847 43.1795 196.659 43.4645 196.515 43.874ZM199.636 45.7666C199.337 45.8662 198.864 45.9852 198.217 46.1235C197.569 46.2619 197.146 46.3975 196.947 46.5303C196.642 46.7461 196.49 47.02 196.49 47.3521C196.49 47.6785 196.612 47.9608 196.855 48.1987C197.099 48.4367 197.409 48.5557 197.785 48.5557C198.206 48.5557 198.607 48.4173 198.989 48.1406C199.271 47.9303 199.456 47.673 199.545 47.3687C199.606 47.1694 199.636 46.7904 199.636 46.2314V45.7666ZM206.468 50H204.135V41.1846H206.302V42.438C206.673 41.8459 207.005 41.4557 207.298 41.2676C207.597 41.0794 207.934 40.9854 208.311 40.9854C208.842 40.9854 209.354 41.132 209.846 41.4253L209.124 43.459C208.731 43.2044 208.366 43.0771 208.028 43.0771C207.702 43.0771 207.425 43.1685 207.198 43.3511C206.971 43.5282 206.792 43.8519 206.659 44.3223C206.531 44.7926 206.468 45.7777 206.468 47.2773V50ZM218.944 50H216.777V48.7051C216.418 49.2087 215.992 49.585 215.499 49.834C215.012 50.0775 214.52 50.1992 214.021 50.1992C213.009 50.1992 212.14 49.7925 211.415 48.979C210.696 48.16 210.336 47.02 210.336 45.5591C210.336 44.0649 210.687 42.9305 211.39 42.1558C212.093 41.3755 212.981 40.9854 214.055 40.9854C215.04 40.9854 215.892 41.3949 216.611 42.2139V37.8311H218.944V50ZM212.718 45.4014C212.718 46.3421 212.848 47.0228 213.108 47.4434C213.485 48.0521 214.01 48.3564 214.686 48.3564C215.222 48.3564 215.679 48.1296 216.055 47.6758C216.431 47.2165 216.62 46.533 216.62 45.6255C216.62 44.6128 216.437 43.8851 216.072 43.4424C215.707 42.9941 215.239 42.77 214.669 42.77C214.116 42.77 213.651 42.9914 213.274 43.4341C212.904 43.8713 212.718 44.527 212.718 45.4014ZM136.019 66.771L138.277 66.4971C138.349 67.0726 138.542 67.5125 138.858 67.8169C139.173 68.1213 139.555 68.2734 140.003 68.2734C140.485 68.2734 140.889 68.0908 141.215 67.7256C141.547 67.3604 141.713 66.8678 141.713 66.248C141.713 65.6615 141.556 65.1966 141.24 64.8535C140.925 64.5104 140.54 64.3389 140.086 64.3389C139.788 64.3389 139.431 64.397 139.016 64.5132L139.273 62.6123C139.904 62.6289 140.385 62.4933 140.717 62.2056C141.049 61.9123 141.215 61.5249 141.215 61.0435C141.215 60.634 141.094 60.3075 140.85 60.064C140.607 59.8205 140.283 59.6987 139.879 59.6987C139.48 59.6987 139.14 59.8371 138.858 60.1138C138.576 60.3905 138.404 60.7944 138.343 61.3257L136.193 60.9604C136.343 60.2244 136.567 59.6379 136.866 59.2007C137.17 58.758 137.591 58.4121 138.127 58.1631C138.67 57.9085 139.276 57.7812 139.945 57.7812C141.091 57.7812 142.009 58.1465 142.701 58.877C143.271 59.4746 143.556 60.1497 143.556 60.9023C143.556 61.9704 142.972 62.8226 141.805 63.459C142.502 63.6084 143.058 63.9432 143.473 64.4634C143.894 64.9836 144.104 65.6117 144.104 66.3477C144.104 67.4157 143.714 68.326 142.934 69.0786C142.153 69.8312 141.182 70.2075 140.02 70.2075C138.919 70.2075 138.006 69.8921 137.281 69.2612C136.556 68.6248 136.135 67.7948 136.019 66.771ZM153.442 67.8335V70H145.266C145.355 69.181 145.62 68.4062 146.063 67.6758C146.506 66.9398 147.38 65.9658 148.686 64.7539C149.737 63.7744 150.382 63.1104 150.62 62.7617C150.941 62.2803 151.102 61.8044 151.102 61.334C151.102 60.8138 150.96 60.4154 150.678 60.1387C150.402 59.8564 150.017 59.7153 149.524 59.7153C149.037 59.7153 148.65 59.862 148.362 60.1553C148.075 60.4486 147.909 60.9355 147.864 61.6162L145.54 61.3838C145.678 60.0999 146.113 59.1785 146.843 58.6196C147.574 58.0607 148.487 57.7812 149.583 57.7812C150.783 57.7812 151.727 58.105 152.413 58.7524C153.099 59.3999 153.442 60.2051 153.442 61.168C153.442 61.7158 153.343 62.2388 153.144 62.7368C152.95 63.2293 152.64 63.7467 152.214 64.2891C151.932 64.6488 151.423 65.1662 150.687 65.8413C149.951 66.5164 149.483 66.9647 149.284 67.186C149.09 67.4074 148.932 67.6232 148.811 67.8335H153.442ZM158.971 57.7812C160.149 57.7812 161.071 58.2018 161.735 59.043C162.526 60.0391 162.922 61.6909 162.922 63.9985C162.922 66.3006 162.523 67.9552 161.727 68.9624C161.068 69.7925 160.149 70.2075 158.971 70.2075C157.786 70.2075 156.832 69.7537 156.107 68.8462C155.382 67.9331 155.02 66.3089 155.02 63.9736C155.02 61.6826 155.418 60.0335 156.215 59.0264C156.873 58.1963 157.792 57.7812 158.971 57.7812ZM158.971 59.7153C158.688 59.7153 158.437 59.8066 158.215 59.9893C157.994 60.1663 157.822 60.4873 157.701 60.9521C157.54 61.5553 157.46 62.5708 157.46 63.9985C157.46 65.4263 157.532 66.4085 157.676 66.9453C157.82 67.4766 158 67.8307 158.215 68.0078C158.437 68.1849 158.688 68.2734 158.971 68.2734C159.253 68.2734 159.505 68.1849 159.726 68.0078C159.947 67.8252 160.119 67.5015 160.241 67.0366C160.401 66.439 160.481 65.4263 160.481 63.9985C160.481 62.5708 160.41 61.5913 160.266 61.0601C160.122 60.5233 159.939 60.1663 159.718 59.9893C159.502 59.8066 159.253 59.7153 158.971 59.7153ZM163.868 70L167.047 65.4595L164.001 61.1846H166.848L168.409 63.6084L170.052 61.1846H172.792L169.803 65.3599L173.065 70H170.202L168.409 67.269L166.599 70H163.868ZM179.922 70H177.589V61.2095C176.737 62.0063 175.733 62.5957 174.576 62.9775V60.8608C175.185 60.6616 175.846 60.2853 176.56 59.7319C177.274 59.173 177.764 58.5228 178.029 57.7812H179.922V70ZM187.359 57.7812C188.538 57.7812 189.459 58.2018 190.124 59.043C190.915 60.0391 191.311 61.6909 191.311 63.9985C191.311 66.3006 190.912 67.9552 190.115 68.9624C189.457 69.7925 188.538 70.2075 187.359 70.2075C186.175 70.2075 185.221 69.7537 184.496 68.8462C183.771 67.9331 183.408 66.3089 183.408 63.9736C183.408 61.6826 183.807 60.0335 184.604 59.0264C185.262 58.1963 186.181 57.7812 187.359 57.7812ZM187.359 59.7153C187.077 59.7153 186.825 59.8066 186.604 59.9893C186.383 60.1663 186.211 60.4873 186.089 60.9521C185.929 61.5553 185.849 62.5708 185.849 63.9985C185.849 65.4263 185.921 66.4085 186.064 66.9453C186.208 67.4766 186.388 67.8307 186.604 68.0078C186.825 68.1849 187.077 68.2734 187.359 68.2734C187.642 68.2734 187.893 68.1849 188.115 68.0078C188.336 67.8252 188.508 67.5015 188.629 67.0366C188.79 66.439 188.87 65.4263 188.87 63.9985C188.87 62.5708 188.798 61.5913 188.654 61.0601C188.51 60.5233 188.328 60.1663 188.106 59.9893C187.891 59.8066 187.642 59.7153 187.359 59.7153ZM196.822 57.7812C198.001 57.7812 198.922 58.2018 199.586 59.043C200.378 60.0391 200.773 61.6909 200.773 63.9985C200.773 66.3006 200.375 67.9552 199.578 68.9624C198.92 69.7925 198.001 70.2075 196.822 70.2075C195.638 70.2075 194.683 69.7537 193.958 68.8462C193.234 67.9331 192.871 66.3089 192.871 63.9736C192.871 61.6826 193.27 60.0335 194.066 59.0264C194.725 58.1963 195.644 57.7812 196.822 57.7812ZM196.822 59.7153C196.54 59.7153 196.288 59.8066 196.067 59.9893C195.846 60.1663 195.674 60.4873 195.552 60.9521C195.392 61.5553 195.312 62.5708 195.312 63.9985C195.312 65.4263 195.383 66.4085 195.527 66.9453C195.671 67.4766 195.851 67.8307 196.067 68.0078C196.288 68.1849 196.54 68.2734 196.822 68.2734C197.104 68.2734 197.356 68.1849 197.578 68.0078C197.799 67.8252 197.971 67.5015 198.092 67.0366C198.253 66.439 198.333 65.4263 198.333 63.9985C198.333 62.5708 198.261 61.5913 198.117 61.0601C197.973 60.5233 197.791 60.1663 197.569 59.9893C197.354 59.8066 197.104 59.7153 196.822 59.7153Z" fill="white"/>
</svg>
