<svg width="140" height="78" viewBox="0 0 140 78" fill="none" xmlns="http://www.w3.org/2000/svg">
<rect width="140" height="78" fill="#F36F26"/>
<path d="M51.535 40H53.215V31.624H51.535V40ZM64.1749 40H65.8549V36.1C65.8549 34.264 64.7269 33.256 63.1309 33.256C62.1589 33.256 61.2829 33.772 60.8509 34.528C60.3949 33.7 59.5429 33.256 58.5109 33.256C57.6829 33.256 56.9749 33.604 56.5549 34.156V33.352H54.8749V40H56.5549V36.328C56.5549 35.272 57.1429 34.72 58.0549 34.72C58.9429 34.72 59.5309 35.272 59.5309 36.328V40H61.2109V36.328C61.2109 35.272 61.7989 34.72 62.6989 34.72C63.5869 34.72 64.1749 35.272 64.1749 36.328V40ZM67.0171 36.652C67.0171 38.728 68.3611 40.108 70.0411 40.108C71.0971 40.108 71.8531 39.604 72.2491 39.028V40H73.9411V33.352H72.2491V34.3C71.8531 33.748 71.1211 33.244 70.0531 33.244C68.3611 33.244 67.0171 34.576 67.0171 36.652ZM72.2491 36.676C72.2491 37.936 71.4091 38.632 70.4851 38.632C69.5851 38.632 68.7331 37.912 68.7331 36.652C68.7331 35.392 69.5851 34.72 70.4851 34.72C71.4091 34.72 72.2491 35.416 72.2491 36.676ZM75.1499 36.652C75.1499 38.728 76.4939 40.108 78.1859 40.108C79.2299 40.108 79.9859 39.592 80.3819 39.016V40.048C80.3819 41.284 79.6619 41.812 78.7379 41.812C77.8979 41.812 77.2739 41.416 77.1059 40.816H75.4379C75.6059 42.34 76.9139 43.276 78.7859 43.276C80.9699 43.276 82.0739 41.848 82.0739 40.048V33.352H80.3819V34.3C79.9859 33.724 79.2299 33.244 78.1859 33.244C76.4939 33.244 75.1499 34.576 75.1499 36.652ZM80.3819 36.676C80.3819 37.936 79.5419 38.632 78.6179 38.632C77.7179 38.632 76.8659 37.912 76.8659 36.652C76.8659 35.392 77.7179 34.72 78.6179 34.72C79.5419 34.72 80.3819 35.416 80.3819 36.676ZM86.5707 34.624C87.4347 34.624 88.1307 35.176 88.1547 36.052H84.9987C85.1307 35.14 85.7667 34.624 86.5707 34.624ZM89.7267 37.912H87.9147C87.6987 38.356 87.3027 38.716 86.5827 38.716C85.7427 38.716 85.0707 38.164 84.9867 37.18H89.8467C89.8827 36.964 89.8947 36.748 89.8947 36.532C89.8947 34.552 88.5387 33.244 86.6187 33.244C84.6507 33.244 83.2827 34.576 83.2827 36.676C83.2827 38.764 84.6867 40.108 86.6187 40.108C88.2627 40.108 89.3667 39.136 89.7267 37.912ZM43.9819 47.612V53.372L40.1779 47.612H38.4979V56H40.1779V50.252L43.9819 56H45.6619V47.612H43.9819ZM46.8901 52.652C46.8901 54.728 48.2341 56.108 49.9141 56.108C50.9701 56.108 51.7261 55.604 52.1221 55.028V56H53.8141V49.352H52.1221V50.3C51.7261 49.748 50.9941 49.244 49.9261 49.244C48.2341 49.244 46.8901 50.576 46.8901 52.652ZM52.1221 52.676C52.1221 53.936 51.2821 54.632 50.3581 54.632C49.4581 54.632 48.6061 53.912 48.6061 52.652C48.6061 51.392 49.4581 50.72 50.3581 50.72C51.2821 50.72 52.1221 51.416 52.1221 52.676ZM55.719 53.936C55.719 55.46 56.571 56 57.843 56H58.899V54.584H58.119C57.591 54.584 57.411 54.392 57.411 53.948V50.732H58.899V49.352H57.411V47.708H55.719V49.352H54.927V50.732H55.719V53.936ZM60.1073 56H61.7873V49.352H60.1073V56ZM60.9593 48.56C61.5473 48.56 61.9913 48.128 61.9913 47.576C61.9913 47.024 61.5473 46.592 60.9593 46.592C60.3593 46.592 59.9273 47.024 59.9273 47.576C59.9273 48.128 60.3593 48.56 60.9593 48.56ZM62.7391 49.352L65.1871 56H67.2271L69.6871 49.352H67.8991L66.2191 54.452L64.5391 49.352H62.7391ZM73.4867 50.624C74.3507 50.624 75.0467 51.176 75.0707 52.052H71.9147C72.0467 51.14 72.6827 50.624 73.4867 50.624ZM76.6427 53.912H74.8307C74.6147 54.356 74.2187 54.716 73.4987 54.716C72.6587 54.716 71.9867 54.164 71.9027 53.18H76.7627C76.7987 52.964 76.8107 52.748 76.8107 52.532C76.8107 50.552 75.4547 49.244 73.5347 49.244C71.5667 49.244 70.1987 50.576 70.1987 52.676C70.1987 54.764 71.6027 56.108 73.5347 56.108C75.1787 56.108 76.2827 55.136 76.6427 53.912ZM86.5844 56H88.3604L85.3484 47.612H83.3924L80.3804 56H82.1444L82.6964 54.404H86.0324L86.5844 56ZM85.5764 53.06H83.1524L84.3644 49.556L85.5764 53.06ZM89.0542 52.652C89.0542 54.728 90.3982 56.108 92.0902 56.108C93.1342 56.108 93.8782 55.628 94.2742 55.016V56H95.9782V47.12H94.2742V50.276C93.8182 49.652 92.9782 49.244 92.1022 49.244C90.3982 49.244 89.0542 50.576 89.0542 52.652ZM94.2862 52.676C94.2862 53.936 93.4462 54.632 92.5222 54.632C91.6222 54.632 90.7702 53.912 90.7702 52.652C90.7702 51.392 91.6222 50.72 92.5222 50.72C93.4462 50.72 94.2862 51.416 94.2862 52.676ZM102.779 54.104C102.731 51.668 99.047 52.424 99.047 51.212C99.047 50.828 99.371 50.576 99.995 50.576C100.655 50.576 101.063 50.924 101.111 51.44H102.719C102.623 50.12 101.651 49.244 100.043 49.244C98.399 49.244 97.415 50.132 97.415 51.236C97.415 53.672 101.171 52.916 101.171 54.104C101.171 54.488 100.811 54.788 100.151 54.788C99.479 54.788 99.011 54.404 98.951 53.9H97.259C97.331 55.136 98.495 56.108 100.163 56.108C101.783 56.108 102.779 55.244 102.779 54.104Z" fill="white"/>
</svg>
