<svg width="336" height="280" viewBox="0 0 336 280" fill="none" xmlns="http://www.w3.org/2000/svg">
<rect width="336" height="280" fill="black"/>
<path d="M126.739 140V127.831H130.682C132.176 127.831 133.15 127.892 133.604 128.014C134.301 128.196 134.885 128.595 135.355 129.209C135.825 129.818 136.061 130.606 136.061 131.575C136.061 132.322 135.925 132.95 135.654 133.459C135.383 133.968 135.037 134.369 134.616 134.663C134.201 134.95 133.778 135.141 133.346 135.235C132.76 135.352 131.91 135.41 130.798 135.41H129.196V140H126.739ZM129.196 129.89V133.343H130.541C131.509 133.343 132.156 133.279 132.483 133.152C132.809 133.025 133.064 132.825 133.247 132.554C133.435 132.283 133.529 131.968 133.529 131.608C133.529 131.165 133.399 130.8 133.139 130.512C132.879 130.224 132.549 130.045 132.151 129.973C131.858 129.917 131.268 129.89 130.383 129.89H129.196ZM143.863 140V138.68C143.542 139.151 143.119 139.521 142.593 139.792C142.073 140.064 141.522 140.199 140.941 140.199C140.349 140.199 139.818 140.069 139.348 139.809C138.877 139.549 138.537 139.184 138.327 138.713C138.116 138.243 138.011 137.593 138.011 136.763V131.185H140.344V135.235C140.344 136.475 140.385 137.236 140.468 137.518C140.557 137.795 140.715 138.016 140.941 138.182C141.168 138.343 141.456 138.423 141.805 138.423C142.203 138.423 142.56 138.315 142.875 138.099C143.191 137.878 143.407 137.607 143.523 137.286C143.639 136.959 143.697 136.165 143.697 134.903V131.185H146.03V140H143.863ZM147.632 137.485L149.973 137.128C150.072 137.582 150.274 137.928 150.579 138.166C150.883 138.398 151.309 138.514 151.857 138.514C152.46 138.514 152.914 138.403 153.218 138.182C153.423 138.027 153.525 137.82 153.525 137.56C153.525 137.382 153.47 137.236 153.359 137.12C153.243 137.009 152.983 136.907 152.579 136.812C150.698 136.397 149.505 136.018 149.001 135.675C148.304 135.199 147.956 134.538 147.956 133.691C147.956 132.928 148.257 132.286 148.86 131.766C149.464 131.245 150.399 130.985 151.666 130.985C152.872 130.985 153.769 131.182 154.355 131.575C154.942 131.968 155.346 132.549 155.567 133.318L153.368 133.725C153.274 133.382 153.094 133.119 152.828 132.936C152.568 132.753 152.194 132.662 151.708 132.662C151.093 132.662 150.653 132.748 150.388 132.919C150.211 133.041 150.122 133.199 150.122 133.393C150.122 133.559 150.2 133.7 150.354 133.816C150.565 133.971 151.29 134.189 152.529 134.472C153.774 134.754 154.643 135.1 155.136 135.509C155.623 135.924 155.866 136.503 155.866 137.244C155.866 138.052 155.529 138.747 154.854 139.328C154.178 139.909 153.18 140.199 151.857 140.199C150.656 140.199 149.704 139.956 149.001 139.469C148.304 138.982 147.848 138.32 147.632 137.485ZM160.241 127.831V132.305C160.993 131.425 161.893 130.985 162.938 130.985C163.475 130.985 163.959 131.085 164.391 131.284C164.823 131.483 165.146 131.738 165.362 132.048C165.584 132.358 165.733 132.701 165.811 133.077C165.894 133.453 165.935 134.037 165.935 134.829V140H163.603V135.343C163.603 134.419 163.558 133.833 163.47 133.583C163.381 133.334 163.223 133.138 162.997 132.994C162.775 132.845 162.496 132.77 162.158 132.77C161.771 132.77 161.425 132.864 161.121 133.052C160.816 133.24 160.592 133.525 160.448 133.907C160.31 134.284 160.241 134.842 160.241 135.584V140H157.908V127.831H160.241ZM176.394 140H174.228V138.705C173.868 139.209 173.442 139.585 172.949 139.834C172.462 140.077 171.97 140.199 171.472 140.199C170.459 140.199 169.59 139.792 168.865 138.979C168.146 138.16 167.786 137.02 167.786 135.559C167.786 134.065 168.138 132.931 168.84 132.156C169.543 131.375 170.431 130.985 171.505 130.985C172.49 130.985 173.342 131.395 174.062 132.214V127.831H176.394V140ZM170.168 135.401C170.168 136.342 170.299 137.023 170.559 137.443C170.935 138.052 171.461 138.356 172.136 138.356C172.673 138.356 173.129 138.13 173.505 137.676C173.882 137.216 174.07 136.533 174.07 135.625C174.07 134.613 173.887 133.885 173.522 133.442C173.157 132.994 172.689 132.77 172.119 132.77C171.566 132.77 171.101 132.991 170.725 133.434C170.354 133.871 170.168 134.527 170.168 135.401ZM178.162 135.468C178.162 134.693 178.353 133.943 178.735 133.218C179.117 132.493 179.656 131.94 180.354 131.558C181.056 131.176 181.839 130.985 182.703 130.985C184.036 130.985 185.129 131.42 185.981 132.289C186.834 133.152 187.26 134.245 187.26 135.567C187.26 136.901 186.828 138.008 185.965 138.888C185.107 139.762 184.025 140.199 182.719 140.199C181.911 140.199 181.139 140.017 180.403 139.651C179.673 139.286 179.117 138.752 178.735 138.049C178.353 137.341 178.162 136.48 178.162 135.468ZM180.553 135.592C180.553 136.467 180.76 137.136 181.175 137.601C181.59 138.066 182.102 138.298 182.711 138.298C183.32 138.298 183.829 138.066 184.238 137.601C184.653 137.136 184.861 136.461 184.861 135.576C184.861 134.712 184.653 134.048 184.238 133.583C183.829 133.119 183.32 132.886 182.711 132.886C182.102 132.886 181.59 133.119 181.175 133.583C180.76 134.048 180.553 134.718 180.553 135.592ZM190.738 140L187.949 131.185H190.215L191.867 136.962L193.386 131.185H195.635L197.104 136.962L198.79 131.185H201.089L198.258 140H196.017L194.498 134.331L193.004 140H190.738ZM210.344 140H208.012V135.501C208.012 134.549 207.962 133.935 207.862 133.658C207.763 133.376 207.599 133.157 207.373 133.002C207.151 132.847 206.883 132.77 206.567 132.77C206.163 132.77 205.801 132.881 205.48 133.102C205.159 133.323 204.938 133.617 204.816 133.982C204.7 134.347 204.642 135.022 204.642 136.007V140H202.309V131.185H204.476V132.479C205.245 131.483 206.213 130.985 207.381 130.985C207.896 130.985 208.366 131.079 208.792 131.268C209.218 131.45 209.539 131.685 209.755 131.973C209.976 132.261 210.128 132.587 210.211 132.953C210.3 133.318 210.344 133.841 210.344 134.521V140ZM136.019 156.771L138.277 156.497C138.349 157.073 138.542 157.513 138.858 157.817C139.173 158.121 139.555 158.273 140.003 158.273C140.485 158.273 140.889 158.091 141.215 157.726C141.547 157.36 141.713 156.868 141.713 156.248C141.713 155.661 141.556 155.197 141.24 154.854C140.925 154.51 140.54 154.339 140.086 154.339C139.788 154.339 139.431 154.397 139.016 154.513L139.273 152.612C139.904 152.629 140.385 152.493 140.717 152.206C141.049 151.912 141.215 151.525 141.215 151.043C141.215 150.634 141.094 150.307 140.85 150.064C140.607 149.82 140.283 149.699 139.879 149.699C139.48 149.699 139.14 149.837 138.858 150.114C138.576 150.39 138.404 150.794 138.343 151.326L136.193 150.96C136.343 150.224 136.567 149.638 136.866 149.201C137.17 148.758 137.591 148.412 138.127 148.163C138.67 147.909 139.276 147.781 139.945 147.781C141.091 147.781 142.009 148.146 142.701 148.877C143.271 149.475 143.556 150.15 143.556 150.902C143.556 151.97 142.972 152.823 141.805 153.459C142.502 153.608 143.058 153.943 143.473 154.463C143.894 154.984 144.104 155.612 144.104 156.348C144.104 157.416 143.714 158.326 142.934 159.079C142.153 159.831 141.182 160.208 140.02 160.208C138.919 160.208 138.006 159.892 137.281 159.261C136.556 158.625 136.135 157.795 136.019 156.771ZM145.482 156.771L147.74 156.497C147.812 157.073 148.005 157.513 148.321 157.817C148.636 158.121 149.018 158.273 149.466 158.273C149.948 158.273 150.352 158.091 150.678 157.726C151.01 157.36 151.176 156.868 151.176 156.248C151.176 155.661 151.019 155.197 150.703 154.854C150.388 154.51 150.003 154.339 149.549 154.339C149.25 154.339 148.894 154.397 148.479 154.513L148.736 152.612C149.367 152.629 149.848 152.493 150.18 152.206C150.512 151.912 150.678 151.525 150.678 151.043C150.678 150.634 150.556 150.307 150.313 150.064C150.069 149.82 149.746 149.699 149.342 149.699C148.943 149.699 148.603 149.837 148.321 150.114C148.039 150.39 147.867 150.794 147.806 151.326L145.656 150.96C145.806 150.224 146.03 149.638 146.329 149.201C146.633 148.758 147.054 148.412 147.59 148.163C148.133 147.909 148.739 147.781 149.408 147.781C150.554 147.781 151.472 148.146 152.164 148.877C152.734 149.475 153.019 150.15 153.019 150.902C153.019 151.97 152.435 152.823 151.268 153.459C151.965 153.608 152.521 153.943 152.936 154.463C153.357 154.984 153.567 155.612 153.567 156.348C153.567 157.416 153.177 158.326 152.396 159.079C151.616 159.831 150.645 160.208 149.483 160.208C148.382 160.208 147.469 159.892 146.744 159.261C146.019 158.625 145.598 157.795 145.482 156.771ZM162.93 150.811L160.672 151.06C160.617 150.595 160.473 150.252 160.241 150.031C160.008 149.809 159.707 149.699 159.336 149.699C158.843 149.699 158.426 149.92 158.083 150.363C157.745 150.806 157.532 151.727 157.443 153.127C158.024 152.441 158.747 152.098 159.61 152.098C160.584 152.098 161.417 152.468 162.108 153.21C162.806 153.951 163.154 154.909 163.154 156.082C163.154 157.327 162.789 158.326 162.059 159.079C161.328 159.831 160.39 160.208 159.245 160.208C158.016 160.208 157.006 159.732 156.215 158.78C155.424 157.822 155.028 156.256 155.028 154.082C155.028 151.851 155.44 150.244 156.265 149.259C157.089 148.274 158.16 147.781 159.477 147.781C160.401 147.781 161.165 148.041 161.768 148.562C162.377 149.076 162.764 149.826 162.93 150.811ZM157.643 155.899C157.643 156.658 157.817 157.244 158.166 157.659C158.514 158.069 158.913 158.273 159.361 158.273C159.792 158.273 160.152 158.105 160.44 157.767C160.728 157.43 160.872 156.876 160.872 156.107C160.872 155.316 160.717 154.737 160.407 154.372C160.097 154.001 159.709 153.816 159.245 153.816C158.796 153.816 158.417 153.993 158.107 154.347C157.798 154.696 157.643 155.213 157.643 155.899ZM163.868 160L167.047 155.459L164.001 151.185H166.848L168.409 153.608L170.052 151.185H172.792L169.803 155.36L173.065 160H170.202L168.409 157.269L166.599 160H163.868ZM181.831 157.833V160H173.655C173.743 159.181 174.009 158.406 174.452 157.676C174.894 156.94 175.769 155.966 177.075 154.754C178.126 153.774 178.771 153.11 179.009 152.762C179.33 152.28 179.49 151.804 179.49 151.334C179.49 150.814 179.349 150.415 179.067 150.139C178.79 149.856 178.406 149.715 177.913 149.715C177.426 149.715 177.039 149.862 176.751 150.155C176.463 150.449 176.297 150.936 176.253 151.616L173.929 151.384C174.067 150.1 174.501 149.179 175.232 148.62C175.962 148.061 176.875 147.781 177.971 147.781C179.172 147.781 180.116 148.105 180.802 148.752C181.488 149.4 181.831 150.205 181.831 151.168C181.831 151.716 181.731 152.239 181.532 152.737C181.339 153.229 181.029 153.747 180.603 154.289C180.32 154.649 179.811 155.166 179.075 155.841C178.339 156.516 177.872 156.965 177.672 157.186C177.479 157.407 177.321 157.623 177.199 157.833H181.831ZM185.417 153.434C184.814 153.18 184.374 152.831 184.097 152.388C183.826 151.94 183.69 151.45 183.69 150.919C183.69 150.011 184.006 149.262 184.637 148.669C185.273 148.077 186.175 147.781 187.343 147.781C188.499 147.781 189.396 148.077 190.032 148.669C190.674 149.262 190.995 150.011 190.995 150.919C190.995 151.483 190.848 151.987 190.555 152.43C190.262 152.867 189.85 153.202 189.318 153.434C189.993 153.705 190.505 154.101 190.854 154.621C191.208 155.141 191.385 155.742 191.385 156.422C191.385 157.546 191.026 158.459 190.306 159.162C189.592 159.864 188.64 160.216 187.451 160.216C186.344 160.216 185.423 159.925 184.687 159.344C183.818 158.658 183.383 157.717 183.383 156.522C183.383 155.863 183.547 155.26 183.873 154.712C184.2 154.159 184.714 153.733 185.417 153.434ZM185.898 151.085C185.898 151.55 186.028 151.912 186.289 152.172C186.554 152.432 186.906 152.562 187.343 152.562C187.785 152.562 188.14 152.432 188.405 152.172C188.671 151.907 188.804 151.542 188.804 151.077C188.804 150.639 188.671 150.291 188.405 150.031C188.145 149.765 187.799 149.632 187.368 149.632C186.919 149.632 186.562 149.765 186.297 150.031C186.031 150.296 185.898 150.648 185.898 151.085ZM185.683 156.298C185.683 156.94 185.846 157.441 186.172 157.8C186.504 158.16 186.917 158.34 187.409 158.34C187.891 158.34 188.289 158.168 188.604 157.825C188.92 157.477 189.078 156.976 189.078 156.323C189.078 155.753 188.917 155.296 188.596 154.953C188.275 154.604 187.868 154.43 187.376 154.43C186.806 154.43 186.38 154.627 186.098 155.02C185.821 155.412 185.683 155.839 185.683 156.298ZM196.822 147.781C198.001 147.781 198.922 148.202 199.586 149.043C200.378 150.039 200.773 151.691 200.773 153.999C200.773 156.301 200.375 157.955 199.578 158.962C198.92 159.792 198.001 160.208 196.822 160.208C195.638 160.208 194.683 159.754 193.958 158.846C193.234 157.933 192.871 156.309 192.871 153.974C192.871 151.683 193.27 150.034 194.066 149.026C194.725 148.196 195.644 147.781 196.822 147.781ZM196.822 149.715C196.54 149.715 196.288 149.807 196.067 149.989C195.846 150.166 195.674 150.487 195.552 150.952C195.392 151.555 195.312 152.571 195.312 153.999C195.312 155.426 195.383 156.409 195.527 156.945C195.671 157.477 195.851 157.831 196.067 158.008C196.288 158.185 196.54 158.273 196.822 158.273C197.104 158.273 197.356 158.185 197.578 158.008C197.799 157.825 197.971 157.501 198.092 157.037C198.253 156.439 198.333 155.426 198.333 153.999C198.333 152.571 198.261 151.591 198.117 151.06C197.973 150.523 197.791 150.166 197.569 149.989C197.354 149.807 197.104 149.715 196.822 149.715Z" fill="white"/>
</svg>
